%YAML 1.1
%TAG !u! tag:unity3d.com,2011:
--- !u!114 &11400000
MonoBehaviour:
  m_ObjectHideFlags: 0
  m_CorrespondingSourceObject: {fileID: 0}
  m_PrefabInstance: {fileID: 0}
  m_PrefabAsset: {fileID: 0}
  m_GameObject: {fileID: 0}
  m_Enabled: 1
  m_EditorHideFlags: 0
  m_Script: {fileID: 11500000, guid: 45c4eaf3264d4683bd9738f9ce8a81cd, type: 3}
  m_Name: GenerationSettings
  m_EditorClassIdentifier: 
  rules:
  - matchDifficulty: 0
    trackWidth: 3
    minDistanceToGeneration: 12
    generationCountPerStep: 2
    tilesPoolCount: 100
    gemsGenerationRule: 3
    gemsPoolCount: 10
    startPlatformWidth: 3
    startOffsetDelta: 3
  - matchDifficulty: 1
    trackWidth: 2
    minDistanceToGeneration: 10
    generationCountPerStep: 3
    tilesPoolCount: 60
    gemsGenerationRule: -1
    gemsPoolCount: 20
    startPlatformWidth: 3
    startOffsetDelta: 2.5
  - matchDifficulty: 2
    trackWidth: 1
    minDistanceToGeneration: 8
    generationCountPerStep: 3
    tilesPoolCount: 50
    gemsGenerationRule: 5
    gemsPoolCount: 10
    startPlatformWidth: 3
    startOffsetDelta: 1
